{
  "1": {
    "2": "71.5",
    "3": "58.5",
    "4": "47.9",
    "5": "41.9",
    "6": "28",
    "7": "52.6",
    "8": "39.9",
    "9": "57.5",
    "10": "86.1"
  },
  "2": {
    "1": "86.3",
    "3": "82.9",
    "4": "34.8",
    "5": "76.2",
    "6": "48.6",
    "7": "82.9",
    "8": "80.0",
    "9": "51.8",
    "10": "95.4"
  },
  "3": {
    "1": "72.0",
    "2": "93.5",
    "4": "41.3",
    "5": "70.4",
    "6": "62.4",
    "7": "48.9",
    "8": "61.6",
    "9": "42.8",
    "10": "84.5"
  },
  "4": {
    "1": "38.1",
    "2": "23.5",
    "3": "36.6",
    "5": "26.5",
    "6": "21.8",
    "7": "47.6",
    "8": "24.0",
    "9": "13.2",
    "10": "74.4"
  },
  "5": {
    "1": "45.7",
    "2": "62.6",
    "3": "71.2",
    "4": "30.7",
    "6": "59.7",
    "7": "61.7",
    "8": "40.3",
    "9": "63.7",
    "10": "47.9"
  },
  "6": {
    "1": "36.3",
    "2": "45.8",
    "3": "46.9",
    "4": "23.1",
    "5": "72.9",
    "7": "46.6",
    "8": "29.4",
    "9": "47.5",
    "10": "32.8"
  },
  "7": {
    "1": "48.9",
    "2": "27.3",
    "3": "42.4",
    "4": "46.6",
    "5": "39.4",
    "6": "36.0",
    "8": "26.8",
    "9": "72.5",
    "10": " "
  },
  "8": {
    "1": "47.7",
    "2": "43.3",
    "3": "43.8",
    "4": "28.7",
    "5": "29.3",
    "6": "29.3",
    "7": "36.9",
    "9": "29.7",
    "10": " "
  },
  "9": {
    "1": "77.3",
    "2": "50.0",
    "3": "46.8",
    "4": "46.1",
    "5": "56.2",
    "6": "56.7",
    "7": "111",
    "8": "30.9",
    "10": " "
  },
  "10": {
    "1": "72.4",
    "2": "25.5",
    "3": "64.0",
    "4": "73.4",
    "5": "24.8",
    "6": "21.9",
    "7": "154",
    "8": "38.0",
    "9": "43.0"
  }
}
